<?xml version="1.0" encoding="iso-8859-1"?>
<!-- Generator: Adobe Illustrator 19.0.0, SVG Export Plug-In . SVG Version: 6.00 Build 0)  -->
<svg version="1.1" id="Capa_1" xmlns="http://www.w3.org/2000/svg" xmlns:xlink="http://www.w3.org/1999/xlink" x="0px" y="0px"
	 viewBox="0 0 512 512" style="enable-background:new 0 0 512 512;" xml:space="preserve">
<g>
	<g>
		<path d="M351.583,337.273h54.719l-63.826-110.541h44.426L255.999,0L125.096,226.731h44.426l-63.825,110.541h54.719L90.822,457.81
			h150.174V512h30.008v-54.19h150.173L351.583,337.273z M255.999,60.017l78.928,136.707H177.072L255.999,60.017z M157.675,307.265
			l46.499-80.533h103.65l46.5,80.533H157.675z M142.799,427.802l52.268-90.529h121.865l52.269,90.529H142.799z"/>
	</g>
</g>
<g>
</g>
<g>
</g>
<g>
</g>
<g>
</g>
<g>
</g>
<g>
</g>
<g>
</g>
<g>
</g>
<g>
</g>
<g>
</g>
<g>
</g>
<g>
</g>
<g>
</g>
<g>
</g>
<g>
</g>
</svg>
