<?xml version="1.0" encoding="iso-8859-1"?>
<!-- Generator: Adobe Illustrator 19.0.0, SVG Export Plug-In . SVG Version: 6.00 Build 0)  -->
<svg version="1.1" id="Capa_1" xmlns="http://www.w3.org/2000/svg" xmlns:xlink="http://www.w3.org/1999/xlink" x="0px" y="0px"
	 viewBox="0 0 512 512" style="enable-background:new 0 0 512 512;" xml:space="preserve">
<g>
	<g>
		<path d="M444.888,388.479c-9.794,1.289-19.753,1.942-29.598,1.942c-123.895,0-224.693-100.796-224.693-224.691
			c0-50.028,16.099-97.38,46.557-136.939L259.321,0l-36.026,4.738c-60.749,7.99-116.656,37.796-157.425,83.926
			C24.735,135.21,2.081,195.088,2.081,257.27c0,68.041,26.496,132.01,74.608,180.121C124.802,485.504,188.77,512,256.811,512
			c40.208,0,78.683-9.105,114.358-27.063c34.002-17.116,64.286-42.153,87.578-72.404l22.168-28.791L444.888,388.479z
			 M256.811,481.962c-123.895,0-224.691-100.796-224.691-224.693c0-100.366,66.928-187.491,160.485-215.373
			c-21.055,37.647-32.044,79.831-32.044,123.832c0,68.041,26.496,132.009,74.609,180.121
			c47.182,47.182,109.614,73.575,176.179,74.579C369.887,459.881,315.19,481.962,256.811,481.962z"/>
	</g>
</g>
<g>
	<g>
		<path d="M509.919,150.367l-79.581-11.564l-35.589-72.114l-35.59,72.114l-79.581,11.564l57.587,56.133l-13.596,79.26l71.18-37.422
			l71.18,37.422l-13.594-79.26L509.919,150.367z M426.035,230.849l-31.286-16.448l-31.286,16.448l5.976-34.837l-25.311-24.672
			l34.978-5.082l15.644-31.696l15.643,31.696l34.979,5.082l-25.311,24.672L426.035,230.849z"/>
	</g>
</g>
<g>
</g>
<g>
</g>
<g>
</g>
<g>
</g>
<g>
</g>
<g>
</g>
<g>
</g>
<g>
</g>
<g>
</g>
<g>
</g>
<g>
</g>
<g>
</g>
<g>
</g>
<g>
</g>
<g>
</g>
</svg>
